zone,nestID,y,x,year,status,pa
east,100E,664941,5142183,2005,Active,1
east,100E,664941,5142183,2006,Inactive,0
east,100E,664941,5142183,2007,Inactive,0
east,100E,664941,5142183,2008,Inactive,0
east,100E,664941,5142183,2009,Inactive,0
east,100E,664941,5142183,2010,Inactive,0
east,100E,664941,5142183,2011,Inactive,0
east,100E,664941,5142183,2012,Inactive,0
east,100E,664941,5142183,2013,Inactive,0
east,100E,664941,5142183,2014,Inactive,0
east,100E,664941,5142183,2015,Inactive,0
east,100E,664941,5142183,2016,Inactive,0
east,100E,664941,5142183,2017,Inactive,0
east,101E,663690,5134371,2005,Active,1
east,107E,666908,5125608,2005,Active,1
east,107E,666908,5125608,2006,Inactive,0
east,107E,666908,5125608,2006,Inactive,0
east,107E,666908,5125608,2007,Inactive,0
east,107E,666908,5125608,2008,Inactive,0
east,107E,666908,5125608,2009,Inactive,0
east,107E,666908,5125608,2010,Inactive,0
east,107E,666908,5125608,2011,Inactive,0
east,116E,666567,5105842,2005,Active,1
east,117E,665167,5142230,2005,Unknown,0
east,117E,665167,5142230,2006,Inactive,0
east,117E,665167,5142230,2007,Inactive,0
east,117E,665167,5142230,2008,Inactive,0
east,117E,665167,5142230,2009,Inactive,0
east,119E,665156,5142243,2006,Active,1
east,119E,665156,5142243,2007,Inactive,0
east,119E,665156,5142243,2007,Inactive,0
east,119E,665156,5142243,2008,Active,1
east, 11E,644975,5147606,2000,Unknown,0
east, 11E,644975,5147606,2000,Active,1
east, 11E,644975,5147606,2001,Active,1
east, 11E,644975,5147606,2003,Inactive,0
east, 11E,644975,5147606,2004,Inactive,0
east,121E,661781,5111277,2006,Active,1
east,121E,661781,5111277,2007,Inactive,0
east,121E,661781,5111277,2008,Inactive,0
east,121E,661781,5111277,2009,Active,1
east,121E,661781,5111277,2010,Active,1
east,121E,661781,5111277,2011,Inactive,0
east,121E,661781,5111277,2014,Inactive,0
east,121E,661781,5111277,2015,Inactive,0
east,121E,661781,5111277,2016,Inactive,0
east,122E,659175,5109293,2006,Active,1
east,122E,659175,5109293,2007,Inactive,0
east,122E,659175,5109293,2008,Inactive,0
east,122E,659175,5109293,2009,Inactive,0
east,122E,659175,5109293,2012,Inactive,0
east,122E,659175,5109293,2013,Inactive,0
east,122E,659175,5109293,2014,Inactive,0
east,122E,659175,5109293,2015,Inactive,0
east,122E,659175,5109293,2016,Inactive,0
east,122E,659175,5109293,2017,Inactive,0
east,126E,674269,5098815,2006,Active,1
east,126E,674269,5098815,2007,Active,1
east,126E,674269,5098815,2008,Inactive,0
east,126E,674269,5098815,2009,Active,1
east,126E,674269,5098815,2010,Inactive,0
east,126E,674269,5098815,2011,Inactive,0
east,126E,674269,5098815,2012,Inactive,0
east,126E,674269,5098815,2013,Inactive,0
east,126E,674269,5098815,2014,Inactive,0
east,126E,674269,5098815,2015,Inactive,0
east,126E,674269,5098815,2016,Inactive,0
east,126E,674269,5098815,2017,Inactive,0
east,129E,679015,5108904,2006,Active,1
east,129E,679015,5108904,2007,Inactive,0
east,129E,679015,5108904,2008,Inactive,0
east,129E,679015,5108904,2009,Inactive,0
east,129E,679015,5108904,2010,Inactive,0
east,129E,679015,5108904,2011,Inactive,0
east,129E,679015,5108904,2012,Inactive,0
east,129E,679015,5108904,2013,Inactive,0
east,131E,676720,5105208,2006,Inactive,0
east,131E,676720,5105208,2007,Active,1
east,131E,676720,5105208,2008,Inactive,0
east,131E,676720,5105208,2009,Inactive,0
east,131E,676720,5105208,2010,Inactive,0
east,131E,676720,5105208,2011,Inactive,0
east,134E,676905,5109881,2006,Inactive,0
east,134E,676905,5109881,2007,Inactive,0
east,134E,676905,5109881,2008,Inactive,0
east,134E,676905,5109881,2009,Inactive,0
east,134E,676905,5109881,2010,Inactive,0
east,134E,676905,5109881,2011,Inactive,0
east,134E,676905,5109881,2012,Inactive,0
east,134E,676905,5109881,2013,Inactive,0
east,134E,676905,5109881,2014,Inactive,0
east,134E,676905,5109881,2015,Inactive,0
east,134E,676905,5109881,2017,Inactive,0
east, 13E,664972,5089929,2000,Inactive,0
east, 13E,664972,5089929,2001,Inactive,0
east, 13E,664972,5089929,2002,Inactive,0
east,140E,654186,5125073,2006,Active,1
east,140E,654186,5125073,2007,Inactive,0
east,140E,654186,5125073,2008,Inactive,0
east,140E,654186,5125073,2009,Inactive,0
east,140E,654186,5125073,2010,Inactive,0
east,140E,654186,5125073,2011,Inactive,0
east,140E,654186,5125073,2012,Inactive,0
east,140E,654186,5125073,2013,Inactive,0
east,142E,653993,5138438,2006,Active,1
east,142E,653993,5138438,2007,Inactive,0
east,142E,653993,5138438,2008,Inactive,0
east,142E,653993,5138438,2009,Inactive,0
east,142E,653993,5138438,2010,Inactive,0
east,142E,653993,5138438,2011,Inactive,0
east,142E,653993,5138438,2012,Inactive,0
east,143E,654084,5138483,2006,Inactive,0
east,143E,654084,5138483,2007,Inactive,0
east,143E,654084,5138483,2008,Inactive,0
east,143E,654084,5138483,2009,Active,1
east,143E,654084,5138483,2010,Inactive,0
east,143E,654084,5138483,2011,Inactive,0
east,143E,654084,5138483,2012,Inactive,0
east,144E,646030,5124820,2006,Active,1
east,144E,646030,5124820,2007,Inactive,0
east,144E,646030,5124820,2008,Inactive,0
east,144E,646030,5124820,2009,Inactive,0
east,144E,646030,5124820,2010,Inactive,0
east,145E,676960,5109896,2006,Active,1
east,145E,676960,5109896,2007,Inactive,0
east,145E,676960,5109896,2008,Active,1
east,145E,676960,5109896,2009,Inactive,0
east,145E,676960,5109896,2010,Inactive,0
east,145E,676960,5109896,2011,Inactive,0
east,145E,676960,5109896,2012,Active,1
east,145E,676960,5109896,2013,Inactive,0
east,145E,676960,5109896,2014,Active,1
east,145E,676960,5109896,2015,Active,1
east,145E,676960,5109896,2016,Inactive,0
east,145E,676960,5109896,2017,Inactive,0
east,159E,653822,5138419,2007,Inactive,0
east,159E,653822,5138419,2007,Inactive,0
east,159E,653822,5138419,2008,Inactive,0
east,159E,653822,5138419,2009,Inactive,0
east,159E,653822,5138419,2010,Inactive,0
east,159E,653822,5138419,2011,Inactive,0
east,159E,653822,5138419,2012,Active,1
east,159E,653822,5138419,2012,Active,1
east,159E,653822,5138419,2013,Inactive,0
east,159E,653822,5138419,2014,Inactive,0
east,159E,653822,5138419,2015,Inactive,0
east,159E,653822,5138419,2016,Inactive,0
east,159E,653822,5138419,2017,Inactive,0
east,169E,666751,5125574,2007,Active,1
east,16E,666596,5105852,2000,Active,1
east,16E,666596,5105852,2002,Unknown,0
east,16E,666596,5105852,2003,Unknown,0
east,16E,666596,5105852,2004,Inactive,0
east,16E,666596,5105852,2006,Inactive,0
east,16E,666596,5105852,2007,Inactive,0
east,16E,666596,5105852,2008,Inactive,0
east,16E,666596,5105852,2011,Inactive,0
east,17E,669748,5088516,2000,Active,1
east,17E,669748,5088516,2001,Unknown,0
east,17E,669748,5088516,2002,Inactive,0
east,188E,668172,5111807,2007,Active,1
east,188E,668172,5111807,2008,Active,1
east,188E,668172,5111807,2009,Active,1
east,188E,668172,5111807,2010,Active,1
east,188E,668172,5111807,2011,Active,1
east,188E,668172,5111807,2012,Inactive,0
east,188E,668172,5111807,2013,Inactive,0
east,188E,668172,5111807,2014,Inactive,0
east,188E,668172,5111807,2015,Inactive,0
east,18E,645662,5150105,2003,Active,1
east,18E,645662,5150105,2004,Active,1
east,18E,645662,5150105,2005,Inactive,0
east,18E,645662,5150105,2006,Inactive,0
east,18E,645662,5150105,2007,Inactive,0
east,18E,645662,5150105,2008,Inactive,0
east,18E,645662,5150105,2009,Inactive,0
east,18E,645662,5150105,2010,Inactive,0
east,18E,645662,5150105,2011,Inactive,0
east,18E,645662,5150105,2012,Inactive,0
east,18E,645662,5150105,2013,Inactive,0
east,18E,645662,5150105,2014,Inactive,0
east,18E,645662,5150105,2015,Inactive,0
east,18E,645662,5150105,2016,Inactive,0
east,19E,655820,5131687,2003,Active,1
east,19E,655820,5131687,2004,Inactive,0
east,19E,655820,5131687,2005,Inactive,0
east,202E,654042,5138710,2008,Active,1
east,202E,654042,5138710,2009,Inactive,0
east,202E,654042,5138710,2010,Inactive,0
east,202E,654042,5138710,2011,Inactive,0
east,202E,654042,5138710,2012,Inactive,0
east,202E,654042,5138710,2013,Inactive,0
east,202E,654042,5138710,2014,Inactive,0
east,202E,654042,5138710,2015,Inactive,0
east,202E,654042,5138710,2016,Inactive,0
east,202E,654042,5138710,2017,Inactive,0
east,203E,674249,5098800,2008,Active,1
east,203E,674249,5098800,2009,Inactive,0
east,203E,674249,5098800,2010,Inactive,0
east,203E,674249,5098800,2011,Inactive,0
east,203E,674249,5098800,2012,Inactive,0
east,203E,674249,5098800,2013,Inactive,0
east,208E,686627,5101987,2008,Inactive,0
east,208E,686627,5101987,2009,Inactive,0
east,208E,686627,5101987,2011,Inactive,0
east,208E,686627,5101987,2012,Inactive,0
east,208E,686627,5101987,2013,Inactive,0
east,208E,686627,5101987,2014,Inactive,0
east,208E,686627,5101987,2015,Inactive,0
east,208E,686627,5101987,2016,Inactive,0
east,208E,686627,5101987,2017,Inactive,0
east,209E,686749,5108606,2008,Active,1
east,209E,686749,5108606,2009,Inactive,0
east,209E,686749,5108606,2010,Inactive,0
east,209E,686749,5108606,2011,Inactive,0
east,209E,686749,5108606,2012,Inactive,0
east,209E,686749,5108606,2013,Inactive,0
east,209E,686749,5108606,2014,Inactive,0
east,209E,686749,5108606,2015,Inactive,0
east,209E,686749,5108606,2016,Inactive,0
east,209E,686749,5108606,2017,Inactive,0
east,20E,659295,5104900,2004,Active,1
east,20E,659295,5104900,2005,Active,1
east,20E,659295,5104900,2006,Inactive,0
east,20E,659295,5104900,2007,Inactive,0
east,20E,659295,5104900,2008,Inactive,0
east,20E,659295,5104900,2009,Inactive,0
east,218E,661717,5111376,2008,Active,1
east,218E,661717,5111376,2009,Inactive,0
east,21E,645703,5150246,2004,Active,1
east,21E,645703,5150246,2005,Active,1
east,21E,645703,5150246,2006,Inactive,0
east,21E,645703,5150246,2007,Inactive,0
east,21E,645703,5150246,2008,Inactive,0
east,21E,645703,5150246,2009,Inactive,0
east,21E,645703,5150246,2010,Inactive,0
east,222E,669475,5130842,2008,Active,1
east,222E,669475,5130842,2009,Inactive,0
east,222E,669475,5130842,2010,Inactive,0
east,222E,669475,5130842,2011,Active,1
east,222E,669475,5130842,2012,Inactive,0
east,222E,669475,5130842,2013,Inactive,0
east,222E,669475,5130842,2014,Inactive,0
east,222E,669475,5130842,2015,Inactive,0
east,222E,669475,5130842,2016,Inactive,0
east,222E,669475,5130842,2017,Inactive,0
east,225E,686972,5102022,2009,Active,1
east,225E,686972,5102022,2010,Inactive,0
east,225E,686972,5102022,2011,Inactive,0
east,225E,686972,5102022,2012,Inactive,0
east,225E,686972,5102022,2013,Inactive,0
east,225E,686972,5102022,2014,Active,1
east,225E,686972,5102022,2015,Inactive,0
east,225E,686972,5102022,2016,Inactive,0
east,225E,686972,5102022,2017,Inactive,0
east,228E,659400,5102895,2009,Active,1
east,228E,659400,5102895,2010,Inactive,0
east,234E,686739,5108655,2009,Inactive,0
east,234E,686739,5108655,2010,Active,1
east,234E,686739,5108655,2011,Inactive,0
east,234E,686739,5108655,2012,Inactive,0
east,234E,686739,5108655,2013,Inactive,0
east,234E,686739,5108655,2014,Inactive,0
east,234E,686739,5108655,2015,Inactive,0
east,234E,686739,5108655,2016,Inactive,0
east,234E,686739,5108655,2017,Inactive,0
east,235E,686818,5108723,2009,Active,1
east,235E,686818,5108723,2010,Inactive,0
east,235E,686818,5108723,2011,Inactive,0
east,235E,686818,5108723,2012,Inactive,0
east,235E,686818,5108723,2013,Inactive,0
east,235E,686818,5108723,2014,Inactive,0
east,235E,686818,5108723,2015,Inactive,0
east,235E,686818,5108723,2016,Inactive,0
east,235E,686818,5108723,2017,Inactive,0
east,237E,671484,5086383,2009,Active,1
east,237E,671484,5086383,2010,Inactive,0
east,237E,671484,5086383,2011,Inactive,0
east,237E,671484,5086383,2012,Inactive,0
east,237E,671484,5086383,2013,Inactive,0
east,237E,671484,5086383,2014,Inactive,0
east,239E,669507,5130917,2009,Active,1
east,239E,669507,5130917,2010,Active,1
east,239E,669507,5130917,2011,Inactive,0
east,239E,669507,5130917,2012,Inactive,0
east,239E,669507,5130917,2013,Inactive,0
east,239E,669507,5130917,2014,Inactive,0
east,239E,669507,5130917,2015,Inactive,0
east,239E,669507,5130917,2016,Inactive,0
east,239E,669507,5130917,2017,Inactive,0
east,23E,666587,5105752,2004,Active,1
east,23E,666587,5105752,2005,Inactive,0
east,23E,666587,5105752,2006,Inactive,0
east,23E,666587,5105752,2007,Inactive,0
east,23E,666587,5105752,2008,Inactive,0
east,23E,666587,5105752,2011,Inactive,0
east,23E,666587,5105752,2012,Inactive,0
east,23E,666587,5105752,2013,Inactive,0
east,23E,666587,5105752,2014,Inactive,0
east,23E,666587,5105752,2015,Inactive,0
east,23E,666587,5105752,2016,Inactive,0
east,23E,666587,5105752,2017,Inactive,0
east,256E,646165,5124679,2010,Active,1
east,256E,646165,5124679,2011,Inactive,0
east,256E,646165,5124679,2012,Inactive,0
east,256E,646165,5124679,2013,Inactive,0
east,256E,646165,5124679,2014,Inactive,0
east,256E,646165,5124679,2015,Inactive,0
east,256E,646165,5124679,2016,Inactive,0
east,256E,646165,5124679,2017,Inactive,0
east,258E,667101,5125499,2010,Active,1
east,258E,667101,5125499,2011,Inactive,0
east,266E,681055,5145716,2010,Active,1
east,266E,681055,5145716,2011,Inactive,0
east,266E,681055,5145716,2012,Inactive,0
east,266E,681055,5145716,2013,Inactive,0
east,266E,681055,5145716,2014,Inactive,0
east,266E,681055,5145716,2015,Inactive,0
east,266E,681055,5145716,2016,Inactive,0
east,266E,681055,5145716,2017,Inactive,0
east,282E,668336,5115463,2011,Active,1
east,282E,668336,5115463,2012,Inactive,0
east,282E,668336,5115463,2013,Inactive,0
east,282E,668336,5115463,2014,Inactive,0
east,282E,668336,5115463,2015,Inactive,0
east,282E,668336,5115463,2016,Inactive,0
east,282E,668336,5115463,2017,Inactive,0
east,288E,686756,5108467,2012,Active,1
east,288E,686756,5108467,2013,Inactive,0
east,288E,686756,5108467,2014,Inactive,0
east,288E,686756,5108467,2015,Inactive,0
east,288E,686756,5108467,2016,Inactive,0
east,288E,686756,5108467,2017,Inactive,0
east,292E,681071,5145662,2012,Active,1
east,292E,681071,5145662,2013,Active,1
east,292E,681071,5145662,2014,Inactive,0
east,292E,681071,5145662,2015,Inactive,0
east,292E,681071,5145662,2016,Inactive,0
east,292E,681071,5145662,2017,Active,1
east,303E,666734,5125556,2012,Active,1
east,314E,666832,5125612,2013,Active,1
east,314E,666832,5125612,2014,Active,1
east,314E,666832,5125612,2015,Inactive,0
east,314E,666832,5125612,2016,Inactive,0
east,315E,646156,5124677,2013,Active,1
east,315E,646156,5124677,2014,Inactive,0
east,315E,646156,5124677,2015,Inactive,0
east,315E,646156,5124677,2016,Inactive,0
east,315E,646156,5124677,2017,Inactive,0
east,320E,666110,5090977,2013,Active,1
east,320E,666110,5090977,2014,Inactive,0
east,320E,666110,5090977,2016,Inactive,0
east,320E,666110,5090977,2017,Inactive,0
east,336E,666103,5090953,2015,Active,1
east,336E,666103,5090953,2016,Inactive,0
east,336E,666103,5090953,2017,Inactive,0
east,351E,686767,5108712,2016,Active,1
east,351E,686767,5108712,2017,Inactive,0
east,354E,666121,5090568,2016,Active,1
east,354E,666121,5090568,2017,Inactive,0
east,356E,667424,5115350,2016,Active,1
east,356E,667424,5115350,2017,Inactive,0
east,386E,666042,5090994,2017,Active,1
east,387E,686821,5108549,2017,Active,1
east,394E,662138,5111208,2017,Active,1
west,AG001,5145126,503967,2002,active,1
west,AG001,5145126,503967,2003,active,1
west,AG001,5145126,503967,2006,inactive,0
west,AG001,5145126,503967,2007,inactive,0
west,AG003,5147124,518488,2001,active,1
west,AG003,5147124,518488,2002,active,1
west,AG003,5147124,518488,2006,inactive,0
west,AG003,5147124,518488,2007,active,1
west,AG003,5147124,518488,2008,inactive,0
west,AG003,5147124,518488,2009,inactive,0
west,AG003,5147124,518488,2011,inactive,0
west,AG019,5129212,525808,2000,inactive,0
west,AG019,5129212,525808,2001,active,1
west,AG019,5129212,525808,2002,inactive,0
west,AG019,5129212,525808,2003,inactive,0
west,AG019,5129212,525808,2006,inactive,0
west,AG019,5129212,525808,2007,inactive,0
west,AG019,5129212,525808,2009,inactive,0
west,AG021,5130650,527953,2001,active,1
west,AG021,5130650,527953,2002,inactive,0
west,AG021,5130650,527953,2003,active,1
west,AG021,5130650,527953,2004,active,1
west,AG021,5130650,527953,2005,inactive,0
west,AG021,5130650,527953,2006,inactive,0
west,AG022,5126423,512231,2000,inactive,0
west,AG022,5126423,512231,2001,inactive,0
west,AG022,5126423,512231,2002,inactive,0
west,AG023,5122840,516716,2000,active,1
west,AG023,5122840,516716,2002,inactive,0
west,AG023,5122840,516716,2003,inactive,0
west,AG023,5122840,516716,2004,inactive,0
west,AG026,5117907,514709,2000,active,1
west,AG026,5117907,514709,2001,inactive,0
west,AG026,5117907,514709,2002,inactive,0
west,AG026,5117907,514709,2003,inactive,0
west,AG026,5117907,514709,2005,inactive,0
west,AG026,5117907,514709,2006,inactive,0
west,AG026,5117907,514709,2007,inactive,0
west,AG029,5117772,514723,2000,inactive,0
west,AG029,5117772,514723,2001,inactive,0
west,AG029,5117772,514723,2002,inactive,0
west,AG029,5117772,514723,2003,inactive,0
west,AG029,5117772,514723,2005,active,1
west,AG029,5117772,514723,2006,active,1
west,AG029,5117772,514723,2007,inactive,0
west,AG030,5117616,529185,2001,active,1
west,AG030,5117616,529185,2002,inactive,0
west,AG030,5117616,529185,2003,inactive,0
west,AG030,5117616,529185,2004,active,1
west,AG030,5117616,529185,2005,inactive,0
west,AG030,5117616,529185,2006,inactive,0
west,AG030,5117616,529185,2007,inactive,0
west,AG031,5117458,529046,2000,active,1
west,AG031,5117458,529046,2002,inactive,0
west,AG031,5117458,529046,2003,inactive,0
west,AG031,5117458,529046,2006,inactive,0
west,AG031,5117458,529046,2007,inactive,0
west,AG031,5117458,529046,2009,inactive,0
west,AG032,5117623,529220,2002,active,1
west,AG032,5117623,529220,2003,inactive,0
west,AG032,5117623,529220,2006,inactive,0
west,AG032,5117623,529220,2007,inactive,0
west,AG032,5117623,529220,2009,inactive,0
west,AG034,5122457,520311,2001,inactive,0
west,AG034,5122457,520311,2002,inactive,0
west,AG034,5122457,520311,2006,inactive,0
west,AG034,5122457,520311,2007,inactive,0
west,AG034,5122457,520311,2009,inactive,0
west,AG047,5129381,523431,2002,inactive,0
west,AG047,5129381,523431,2006,inactive,0
west,AG047,5129381,523431,2009,inactive,0
west,AG048,5129223,523469,2003,active,1
west,AG048,5129223,523469,2006,inactive,0
west,AG048,5129223,523469,2009,inactive,0
west,AG071,5147026,518473,2009,active,1
west,AG071,5147026,518473,2011,inactive,0
west,AG071,5147026,518473,2012,inactive,0
west,AG073,5133095,514866,2011,active,1
west,AG073,5133095,514866,2012,active,1
west,AG073,5133095,514866,2013,inactive,0
west,AG073,5133095,514866,2014,inactive,0
west,AG075,5133988,526149,2011,active,1
west,AG075,5133988,526149,2012,active,1
west,AG075,5133988,526149,2013,inactive,0
west,AG075,5133988,526149,2014,inactive,0
west,AG075,5133988,526149,2015,inactive,0
west,DE009,5097041,510963,2002,active,1
west,DE009,5097041,510963,2003,inactive,0
west,DE009,5097041,510963,2004,inactive,0
west,DE009,5097041,510963,2005,active,1
west,DE009,5097041,510963,2006,inactive,0
west,DE009,5097041,510963,2007,inactive,0
west,DE009,5097041,510963,2008,inactive,0
west,DE009,5097041,510963,2009,inactive,0
west,DE010,5110376,525932,2000,inactive,0
west,DE010,5110376,525932,2002,inactive,0
west,DE010,5110376,525932,2006,inactive,0
west,DE010,5110376,525932,2009,inactive,0
west,DE011,5091609,526186,2000,inactive,0
west,DE011,5091609,526186,2001,active,1
west,DE011,5091609,526186,2002,inactive,0
west,DE011,5091609,526186,2006,inactive,0
west,DE011,5091609,526186,2007,inactive,0
west,DE011,5091609,526186,2008,inactive,0
west,DE012,5091641,526190,1999,active,1
west,DE012,5091641,526190,2000,inactive,0
west,DE012,5091641,526190,2002,inactive,0
west,DE012,5091641,526190,2006,inactive,0
west,DE012,5091641,526190,2007,inactive,0
west,DE012,5091641,526190,2008,inactive,0
west,DE018,5091694,526114,2002,active,1
west,DE018,5091694,526114,2003,active,1
west,DE018,5091694,526114,2007,inactive,0
west,DE018,5091694,526114,2008,inactive,0
west,DE018,5091694,526114,2009,inactive,0
west,DE018,5091694,526114,2010,inactive,0
west,DE018,5091694,526114,2011,inactive,0
west,DE018,5091694,526114,2012,inactive,0
west,DE018,5091694,526114,2013,inactive,0
west,DE018,5091694,526114,2014,inactive,0
west,DE024,5097086,511474,1999,active,1
west,DE024,5097086,511474,2002,inactive,0
west,DE024,5097086,511474,2004,inactive,0
west,DE024,5097086,511474,2006,inactive,0
west,DE024,5097086,511474,2007,inactive,0
west,DE024,5097086,511474,2008,inactive,0
west,DE026,5106656,527771,2000,inactive,0
west,DE026,5106656,527771,2001,inactive,0
west,DE026,5106656,527771,2002,inactive,0
west,DE026,5106656,527771,2006,inactive,0
west,DE038,,511943,2005,active,1
west,DE038,,511943,2006,inactive,0
west,DE038,,511943,2007,inactive,0
west,DE038,,511943,2008,inactive,0
west,DE042,5104832,503585,2005,active,1
west,DE042,5104832,503585,2006,inactive,0
west,DE042,5104832,503585,2007,inactive,0
west,DE042,5104832,503585,2008,active,1
west,DE042,5104832,503585,2009,inactive,0
west,DE042,5104832,503585,2010,inactive,0
west,DE042,5104832,503585,2011,inactive,0
west,DE042,5104832,503585,2012,inactive,0
west,DE043,5106421,510279,2005,active,1
west,DE043,5106421,510279,2006,active,1
west,DE043,5106421,510279,2007,inactive,0
west,DE043,5106421,510279,2008,inactive,0
west,DE043,5106421,510279,2009,active,1
west,DE043,5106421,510279,2010,inactive,0
west,DE043,5106421,510279,2011,inactive,0
west,DE043,5106421,510279,2012,inactive,0
west,DE043,5106421,510279,2013,inactive,0
west,DE044,5097574,518518,2006,active,1
west,DE044,5097574,518518,2007,inactive,0
west,DE044,5097574,518518,2008,inactive,0
west,DE052,5101232,512077,2007,active,1
west,DE052,5101232,512077,2008,active,1
west,DE052,5101232,512077,2009,active,1
west,DE052,5101232,512077,2010,inactive,0
west,DE052,5101232,512077,2011,active,1
west,DE053,5101391,512251,2007,active,1
west,DE053,5101391,512251,2013,inactive,0
west,DE053,5101391,512251,2014,inactive,0
west,DE053,5101391,512251,2015,inactive,0
west,DE060,5101387,512239,2008,active,1
west,DE060,5101387,512239,2009,inactive,0
west,DE060,5101387,512239,2010,active,1
west,DE060,5101387,512239,2011,inactive,0
west,DE060,5101387,512239,2012,inactive,0
west,DE062,5101187,512087,2008,active,1
west,DE070,5108467,514430,2009,active,1
west,DE070,5108467,514430,2010,inactive,0
west,DE070,5108467,514430,2011,inactive,0
west,DE070,5108467,514430,2012,inactive,0
west,DE070,5108467,514430,2013,inactive,0
west,DE070,5108467,514430,2014,inactive,0
west,DE070,5108467,514430,2015,inactive,0
west,DE071,5108723,514466,2009,inactive,0
west,DE071,5108723,514466,2010,active,1
west,DE071,5108723,514466,2011,inactive,0
west,DE071,5108723,514466,2012,inactive,0
west,DE071,5108723,514466,2013,inactive,0
west,DE071,5108723,514466,2014,inactive,0
west,DE071,5108723,514466,2015,inactive,0
west,DE072,5108514,514401,2009,inactive,0
west,DE072,5108514,514401,2010,active,1
west,DE072,5108514,514401,2011,inactive,0
west,DE072,5108514,514401,2012,inactive,0
west,DE072,5108514,514401,2013,active,1
west,DE072,5108514,514401,2014,inactive,0
west,DE072,5108514,514401,2015,inactive,0
west,DE072,5108514,514401,2016,active,1
west,DE087,5101092,505220,2011,active,1
west,DE087,5101092,505220,2012,active,1
west,DE087,5101092,505220,2013,active,1
west,DE087,5101092,505220,2014,active,1
west,DE087,5101092,505220,2015,active,1
west,DE100,5101050,505219,2014,active,1
west,DE104,5103056,526201,2015,active,1
west,DE105,5110218,526846,2015,active,1
west,DE106,5110193,526827,2015,active,1
west,DE112,5087770,538297,2015,active,1
west,DE112,5087770,538297,2016,active,1
west,DE119,5101152.276508,505253.424359,2016,active,1
west,SC008,5130707,542479,2000,active,1
west,SC008,5130707,542479,2001,inactive,0
west,SC008,5130707,542479,2002,inactive,0
west,SC008,5130707,542479,2003,inactive,0
west,SC008,5130707,542479,2006,inactive,0
west,SC008,5130707,542479,2009,inactive,0
west,SC008,5130707,542479,2010,inactive,0
west,SC011,5122106,544249,2002,active,1
west,SC011,5122106,544249,2006,inactive,0
west,SC011,5122106,544249,2007,inactive,0
west,SC011,5122106,544249,2008,inactive,0
west,SC011,5122106,544249,2009,inactive,0
west,SC012,5122175,544134,2002,inactive,0
west,SC012,5122175,544134,2003,inactive,0
west,SC012,5122175,544134,2006,inactive,0
west,SC012,5122175,544134,2007,inactive,0
west,SC015,5123480,531865,2000,inactive,0
west,SC015,5123480,531865,2001,inactive,0
west,SC015,5123480,531865,2002,inactive,0
west,SC015,5123480,531865,2003,inactive,0
west,SC015,5123480,531865,2006,inactive,0
west,SC017,5123419,531961,1999,active,1
west,SC017,5123419,531961,2000,active,1
west,SC017,5123419,531961,2001,inactive,0
west,SC017,5123419,531961,2002,inactive,0
west,SC017,5123419,531961,2003,inactive,0
west,SC018,5123362,531813,2000,inactive,0
west,SC018,5123362,531813,2002,active,1
west,SC018,5123362,531813,2003,inactive,0
west,SC136,5096235,543269,2014,active,1
west,SC136,5096235,543269,2015,inactive,0
west,SC136,5096235,543269,2016,active,1
west,SC140,5122331,533346,2015,inactive,0
