X,Y,objectID,standID,basalArea,yearOrigin,Shape_Leng,Shape_Area,year
541771.456018471,5094950.24769632,2064,9100200086034,113.3333,1940,1239.07535324,61841.5961958,2017
537824.305779769,5097477.63052408,2299,9100200080034,120,1933,897.85714382,26162.0982591,2017
538023.682755342,5098350.81719313,2441,9100200068008,123.3333,1931,2103.7581431,68132.5425406,2017
538413.81804642,5097343.47315231,3097,9100200081019,160,1889,2199.51367899,57228.8114592,2017
537690.896972945,5097702.52189397,5972,9100200069020,90,1918,1103.61796422,36477.831213,2017
540887.628108445,5096354.00124355,9525,9100200081059,103.3333,1950,1732.40106486,76943.2482966,2017
538048.972130345,5097546.2739104,9815,9100200081005,103.3333,1903,1086.90596141,33706.6882496,2017
541020.418321576,5094792.13703254,29151,9100200086037,70,1930,658.525650945,19486.8515264,2017
529166.611641343,5092197.18780811,30778,9100200091054,163.3333,1945,2201.78253346,224333.911441,2017
542039.770366126,5094133.07937061,32335,9100200086012,120,1940,3637.14416723,133573.173775,2017
530517.140348696,5094594.37712928,33955,9100200078056,155,1934,1331.26752211,50539.5688468,2017
529970.093951628,5095475.7968477,34211,9100200078033,140,1920,3747.44348907,128589.637648,2017
521271.326329688,5078436.36645098,23,9100100043031,125,1915,1969.68897685,69013.9289905,2016
525860.988285418,5089524.1239678,125,9100200093097,110,1950,2477.18767205,185170.794368,2016
525279.637374404,5077287.63862206,180,9100100044036,87,1938,2976.24389491,168522.986944,2016
527256.465890667,5087128.93705436,324,9100200115038,83,1944,1088.28022948,23871.5192842,2016
526181.371025622,5089518.72097985,471,9100200093095,110,1949,2817.84125241,187189.358378,2016
525772.034912525,5091055.26934809,484,9100200092015,140,0,4975.72339344,492307.138108,2016
525451.629895485,5090162.13171837,627,9100200093080,53,1928,1812.76405163,94611.8990947,2016
522082.13668149,5078021.77933136,706,9100100043034,123,1929,2844.69419929,174270.715631,2016
521759.668296328,5077607.70017329,771,9100100043033,129,1920,1304.90435031,100121.919932,2016
527138.769402609,5087148.93200312,1066,9100200115009,0,0,2374.05048456,36814.4447337,2016
519669.304576866,5087659.30857176,1079,9100100064015,105,1904,1546.7822479,113524.635773,2016
519449.08513524,5086118.80822174,1081,9100100064075,102,1919,2408.29361357,83923.3566033,2016
521429.392778752,5078061.04261814,1471,9100100043032,105,1920,4262.56648841,240469.571074,2016
526362.744735465,5091242.30494762,1629,9100200092011,103.3333,0,1219.32812979,73747.6100261,2016
521557.568184353,5088100.60183443,1686,9100100064007,145,1904,4653.81671595,437472.839791,2016
524421.948054032,5092736.07446417,1744,9100100085005,122,1927,1871.01428661,168758.294168,2016
519678.907958597,5087440.72369824,1771,9100100064123,100,1904,1009.82481316,25154.6652871,2016
525056.412998881,5078970.05734453,1843,9100100047032,120,1892,1254.59258361,41140.375773,2016
527189.574383536,5087327.74240848,1861,9100200115034,83,1944,2743.27851466,151473.385953,2016
523966.640212756,5089670.77740214,1887,9100200093026,100,1979,2350.98696692,84860.3279814,2016
522699.635915061,5087868.66698585,1928,9100100171032,150,1930,1053.57129973,52149.0552028,2016
526743.842454037,5086779.7435463,2146,9100200115010,100,1939,3583.12054274,183257.471373,2016
523411.386929643,5092232.75709178,2297,9100100085001,110.4,1946,6778.50600694,1837149.7921,2016
521085.154268216,5079899.59293489,2394,9100100048033,106,1922,4155.73124915,338638.262185,2016
526786.219051635,5087267.17828,2461,9100200115008,30,1993,1620.90043577,55835.9813314,2016
523631.449074524,5089392.81904881,2575,9100200093055,0,0,12296.7140299,80488.3975859,2016
525333.12189736,5090560.08955368,2581,9100200093079,112,1924,2328.95735627,170038.063551,2016
525132.802495262,5078563.88630231,2669,9100100044012,118,1927,3013.34002032,131267.320724,2016
519017.219536489,5087185.7166395,2720,9100100064036,108,1914,2005.88103829,115134.987639,2016
526010.743751455,5091720.54150801,2801,9100200092023,152,1941,3909.46889723,465092.025813,2016
523905.154896341,5089711.16446781,2915,9100200093001,105,0,7157.23591741,173205.867082,2016
526339.906467144,5087688.5773591,2974,9100200116059,115,1921,2712.64530945,153548.212778,2016
519360.786146751,5085972.02971064,3226,9100100062043,130,1914,1551.69588819,36382.8188878,2016
525200.857180935,5091244.65766467,3377,9100200092022,130,1951,4657.42376262,462433.105472,2016
519221.053735576,5086705.44737957,3381,9100100064038,101,1914,3075.58210114,208684.322654,2016
520454.57183375,5087712.70793389,3583,9100100064006,118,1899,1564.23717943,132479.516839,2016
524998.184115679,5078519.37051847,3655,9100100044058,120,1927,1273.44107952,43537.5180571,2016
523447.129624664,5100274.29330537,1710819,,140,1943,0,2.2094914708E-05,2015
528559.444249639,5103936.80343859,1724975,,90,1934,0,3.8457451192E-05,2015
533388.906120569,5122343.54756514,1843437,,147,1920,0,1.0114072375E-05,2015
528576.056260277,5104338.9307945,1727703,,135,0,0,2.3666347631E-05,2015
536787.762694735,5118330.35383573,2116647,,160,1939,0,8.9890663596E-05,2015
512123.87469168,5113385.65316306,2101,9100300093024,80,0,1693.05829951,140520.306314,2003
512470.017659674,5112033.04102595,2953,9100300093012,80,0,1909.70803689,89892.6849693,2003
511129.517603891,5111955.32486957,7420,9100300093035,94,1979,2277.78552558,164162.880967,2003
511401.43187078,5113026.48153047,24174,9100300093023,115,1886,1745.41163849,104705.584422,2003
512254.539438494,5112824.6139006,32046,9100300093025,118,1928,1716.83689625,137784.404925,2003
512123.87469168,5113385.65316306,2101,9100300093024,80,0,1693.05829951,140520.306314,2001
512470.017659674,5112033.04102595,2953,9100300093012,80,0,1909.70803689,89892.6849693,2001
512254.539438494,5112824.6139006,32046,9100300093025,118,1928,1716.83689625,137784.404925,2001
512509.206845862,5116064.18561544,30841,9100300093001,87,0,2487.12416958,108790.273241,2000
512254.539438494,5112824.6139006,32046,9100300093025,118,1928,1716.83689625,137784.404925,2000
513239.823626704,5087747.55622477,912,9100100067058,120,1920,2128.8813729,23962.1864546,2005
512115.13123058,5087759.52065533,2822,9100100067081,70,1940,1504.05673148,21906.9006893,2005
508986.018227329,5085893.97475983,3677,9100100059003,10,2012,2313.33580583,45318.46017,2005
512932.615029008,5084477.79323836,5193,9100100060050,90,1951,2091.24898842,42497.4093801,2005
512761.08457116,5087420.30049097,5332,9100100067061,67,1920,999.983005179,24211.5715862,2005
515034.734510931,5089108.56031728,5352,9100100013010,135,1930,1452.64067342,54384.1218323,2005
515475.145105699,5088244.93672598,5699,9100100013022,110,1929,630.926704269,14189.6221945,2005
512002.473225615,5090422.87171927,6052,9100100079029,134,1928,2261.50862473,81904.0599562,2005
512307.813396255,5085275.24093831,6259,9100100060011,10,2012,2022.53157363,63178.1334972,2005
512254.420350334,5086355.46249238,7744,9100100002033,30,1994,1620.2851855,50682.0844619,2005
513330.687770848,5087961.01002725,8484,9100100067056,93,1920,744.731484053,15264.0514575,2005
515833.490698123,5095129.04422316,9752,9100100104014,110,1920,1810.60536704,70522.7377763,2005
508120.351375743,5085722.19422872,9879,9100100059004,0,0,880.931079305,20754.9106276,2005
515744.904994258,5087817.59917898,10481,9100100013037,97,1924,547.471061411,14934.595012,2005
510672.243731133,5093041.72487189,10829,9100100090037,110,1993,3641.04364289,48687.6951176,2005
512255.902044071,5089044.96646381,11330,9100100067036,118,1830,1520.12480713,65626.1395736,2005
514839.814252664,5095984.83187034,11720,9100100104032,118,1914,1959.19516043,163495.319873,2005
510568.079590345,5087461.67127547,11896,9100100002058,180,1920,2190.82450445,60233.6358891,2005
510417.840464797,5091680.46251628,12828,9100100079073,50,1938,936.529617729,53129.0813342,2005
510481.028083224,5093880.42534757,13907,9100100090027,0,0,520.721476564,13382.84542,2005
511382.658858023,5089220.85634267,14249,9100100079044,108,1886,3477.37323806,105115.202148,2005
514800.882873531,5087648.11289164,15087,9100100013039,153,1924,1243.97401943,22115.597909,2005
511926.944469374,5088696.6505614,15280,9100100067041,115,1969,1208.29564034,35302.1864987,2005
515834.39206375,5097174.21842957,16000,9100100104043,163,1920,812.298160896,23158.0180487,2005
511697.641789039,5087837.32638597,16540,9100100067054,116,1965,1336.59285776,46412.4093416,2005
512833.096446828,5090086.27962453,16652,9100100067079,167,1890,6292.47913532,299986.982681,2005
508804.583366595,5086623.7551627,18106,9100100002007,60,0,4370.31720312,284943.619317,2005
512773.022227531,5089399.04493193,18258,9100100067024,154,1920,1932.63804952,57237.5774026,2005
512100.943708338,5087169.62035097,18350,9100100067066,148,1890,3479.35027965,210488.980555,2005
510688.061087335,5092401.52297577,18422,9100100090080,0,0,3695.66206948,89267.3277451,2005
511600.068482025,5087297.06183016,19109,9100100067073,113,1985,1807.93616003,34333.32727,2005
511187.895068583,5085232.15482641,19239,9100100060039,10,2012,3750.81428317,83009.7035266,2005
516013.991164843,5097358.47774094,19354,9100100104001,108,1945,696.17757377,26030.8736041,2005
513422.659605045,5091635.95957417,19362,9100100079012,178,1898,2501.20912341,56110.9368511,2005
513189.345796685,5089085.34770868,19730,9100100067023,100,1890,2483.56314776,87043.8875916,2005
516292.643672875,5096342.15749144,19914,9100100104044,133,1922,882.567082966,23356.7366981,2005
516157.10989682,5096902.38643554,20280,9100100104006,198,1880,1528.88460665,98667.6272191,2005
516269.558891988,5087991.18897862,20590,9100100013059,63,1917,1276.88798597,67749.8589673,2005
509743.591644952,5092407.04609254,20710,9100100090033,143.3333,1966,1351.85847124,40574.5437183,2005
509934.690397611,5093001.72348612,20919,9100100090015,0,0,3989.53536034,140400.160298,2005
510003.117262799,5092397.06980227,21749,9100100090005,65,0,757.099328171,34051.9100493,2005
515791.341492596,5094081.81604505,21891,9100100104022,135,1927,586.296435187,8879.33005825,2005
510791.469563645,5091546.02562669,22425,9100100079075,75,1946,2831.62941771,89530.9896972,2005
513839.918193465,5092044.11223476,24597,9100100079002,112,1898,2226.63744109,106409.14247,2005
509626.121273987,5093595.58838109,24726,9100100090021,99,1909,2844.26350859,83900.563318,2005
513046.912058255,5088572.99919838,24982,9100100067038,130,1969,738.02285,18519.5904069,2005
509844.737011063,5093379.68250109,26133,9100100090020,96,1939,1533.03627728,45885.2808777,2005
511561.719189878,5088170.32472697,26230,9100100067049,136,1900,2145.48435488,112677.32873,2005
508232.562722255,5086114.09066776,27358,9100100059038,22.5,2012,1508.53395527,47571.8769181,2005
509310.539042775,5084458.13650232,27567,9100100059027,10,2012,2248.91974253,78326.5178896,2005
511604.141825707,5089462.88549464,28887,9100100079084,157,1929,649.972704279,15748.3779232,2005
515260.844086272,5087752.1069017,30866,9100100013036,84,1932,4140.57554793,213850.319972,2005
512524.656289729,5085764.07529972,30949,9100100060026,117,1912,1132.54937984,28426.3757178,2005
515307.329537398,5088237.65417146,30976,9100100013021,109,1966,2882.21836156,111121.50139,2005
510428.308113224,5091115.81647198,31637,9100100079078,180,1973,980.063704356,26414.1086482,2005
512535.4061399,5085527.09472162,33854,9100100060013,122,1919,1383.96264835,43606.8504202,2005
513999.453470037,5088943.21306283,34605,9100100013009,100,1987,1510.09858494,52737.7706372,2005
515891.424693124,5095382.0552094,35310,9100100104013,30,1921,1504.11807394,26178.8241173,2005
510983.770993772,5088848.73846507,1877,9100100078050,110,1924,2017.05675859,48734.0872553,2003
515578.493352679,5095378.72575984,3324,9100100104015,118,1924,3941.5762161,245930.146838,2003
508986.018227329,5085893.97475983,3677,9100100059003,10,2012,2313.33580583,45318.46017,2003
509226.941667872,5084670.52793874,4855,9100100059021,124,1936,5006.78808769,381011.349261,2003
512932.615029008,5084477.79323836,5193,9100100060050,90,1951,2091.24898842,42497.4093801,2003
515034.734510931,5089108.56031728,5352,9100100013010,135,1930,1452.64067342,54384.1218323,2003
515475.145105699,5088244.93672598,5699,9100100013022,110,1929,630.926704269,14189.6221945,2003
512002.473225615,5090422.87171927,6052,9100100079029,134,1928,2261.50862473,81904.0599562,2003
512307.813396255,5085275.24093831,6259,9100100060011,10,2012,2022.53157363,63178.1334972,2003
512254.420350334,5086355.46249238,7744,9100100002033,30,1994,1620.2851855,50682.0844619,2003
515744.904994258,5087817.59917898,10481,9100100013037,97,1924,547.471061411,14934.595012,2003
509668.754360612,5093199.23509507,14375,9100100090014,186,1902,1464.40657354,69525.5583711,2003
508368.490113215,5086975.20793484,15672,9100100002003,70,0,3529.92109052,192879.623334,2003
515834.39206375,5097174.21842957,16000,9100100104043,163,1920,812.298160896,23158.0180487,2003
512833.096446828,5090086.27962453,16652,9100100067079,167,1890,6292.47913532,299986.982681,2003
508804.583366595,5086623.7551627,18106,9100100002007,60,0,4370.31720312,284943.619317,2003
512773.022227531,5089399.04493193,18258,9100100067024,154,1920,1932.63804952,57237.5774026,2003
511600.068482025,5087297.06183016,19109,9100100067073,113,1985,1807.93616003,34333.32727,2003
511187.895068583,5085232.15482641,19239,9100100060039,10,2012,3750.81428317,83009.7035266,2003
516157.10989682,5096902.38643554,20280,9100100104006,198,1880,1528.88460665,98667.6272191,2003
509626.121273987,5093595.58838109,24726,9100100090021,99,1909,2844.26350859,83900.563318,2003
510032.750569352,5084635.1017111,25118,9100100059009,103.3333,1973,2432.54935207,70021.7194884,2003
510591.191024084,5087485.66113025,25640,9100100002022,38,1984,1001.224336,33614.7852956,2003
509844.737011063,5093379.68250109,26133,9100100090020,96,1939,1533.03627728,45885.2808777,2003
511561.719189878,5088170.32472697,26230,9100100067049,136,1900,2145.48435488,112677.32873,2003
508232.562722255,5086114.09066776,27358,9100100059038,22.5,2012,1508.53395527,47571.8769181,2003
510573.596957198,5094811.26522449,27812,9100100103047,106,1960,1605.74785861,102374.152622,2003
511604.141825707,5089462.88549464,28887,9100100079084,157,1929,649.972704279,15748.3779232,2003
515260.844086272,5087752.1069017,30866,9100100013036,84,1932,4140.57554793,213850.319972,2003
512524.656289729,5085764.07529972,30949,9100100060026,117,1912,1132.54937984,28426.3757178,2003
512535.4061399,5085527.09472162,33854,9100100060013,122,1919,1383.96264835,43606.8504202,2003
510522.098536978,5094056.18417365,34608,9100100103055,0,0,2393.54053977,81010.5674874,2003
515891.424693124,5095382.0552094,35310,9100100104013,30,1921,1504.11807394,26178.8241173,2003
512069.572038663,5096169.32516101,35974,9100100103027,0,0,1186.48243287,45767.7055228,2003
510983.770993772,5088848.73846507,1877,9100100078050,110,1924,2017.05675859,48734.0872553,2002
508986.018227329,5085893.97475983,3677,9100100059003,10,2012,2313.33580583,45318.46017,2002
514913.403077823,5095513.64268494,4624,9100100104031,149,1854,2170.95332238,104695.224332,2002
512932.615029008,5084477.79323836,5193,9100100060050,90,1951,2091.24898842,42497.4093801,2002
515475.145105699,5088244.93672598,5699,9100100013022,110,1929,630.926704269,14189.6221945,2002
512002.473225615,5090422.87171927,6052,9100100079029,134,1928,2261.50862473,81904.0599562,2002
515362.136805961,5093825.34619776,6317,9100100040001,100,1915,1881.10443963,22807.6097275,2002
512254.420350334,5086355.46249238,7744,9100100002033,30,1994,1620.2851855,50682.0844619,2002
515744.904994258,5087817.59917898,10481,9100100013037,97,1924,547.471061411,14934.595012,2002
512255.902044071,5089044.96646381,11330,9100100067036,118,1830,1520.12480713,65626.1395736,2002
514800.882873531,5087648.11289164,15087,9100100013039,153,1924,1243.97401943,22115.597909,2002
511926.944469374,5088696.6505614,15280,9100100067041,115,1969,1208.29564034,35302.1864987,2002
508368.490113215,5086975.20793484,15672,9100100002003,70,0,3529.92109052,192879.623334,2002
515834.39206375,5097174.21842957,16000,9100100104043,163,1920,812.298160896,23158.0180487,2002
512833.096446828,5090086.27962453,16652,9100100067079,167,1890,6292.47913532,299986.982681,2002
508804.583366595,5086623.7551627,18106,9100100002007,60,0,4370.31720312,284943.619317,2002
512773.022227531,5089399.04493193,18258,9100100067024,154,1920,1932.63804952,57237.5774026,2002
511600.068482025,5087297.06183016,19109,9100100067073,113,1985,1807.93616003,34333.32727,2002
516013.991164843,5097358.47774094,19354,9100100104001,108,1945,696.17757377,26030.8736041,2002
513189.345796685,5089085.34770868,19730,9100100067023,100,1890,2483.56314776,87043.8875916,2002
516292.643672875,5096342.15749144,19914,9100100104044,133,1922,882.567082966,23356.7366981,2002
516157.10989682,5096902.38643554,20280,9100100104006,198,1880,1528.88460665,98667.6272191,2002
516269.558891988,5087991.18897862,20590,9100100013059,63,1917,1276.88798597,67749.8589673,2002
509743.591644952,5092407.04609254,20710,9100100090033,143.3333,1966,1351.85847124,40574.5437183,2002
509934.690397611,5093001.72348612,20919,9100100090015,0,0,3989.53536034,140400.160298,2002
515791.341492596,5094081.81604505,21891,9100100104022,135,1927,586.296435187,8879.33005825,2002
511949.946816842,5090664.96375219,22282,9100100079027,105,1928,4229.25167745,195339.777503,2002
516074.981291656,5096171.1027565,23487,9100100104008,142,1923,3137.48060419,127493.055485,2002
510591.191024084,5087485.66113025,25640,9100100002022,38,1984,1001.224336,33614.7852956,2002
509310.539042775,5084458.13650232,27567,9100100059027,10,2012,2248.91974253,78326.5178896,2002
510573.596957198,5094811.26522449,27812,9100100103047,106,1960,1605.74785861,102374.152622,2002
511218.598527279,5088979.5306039,28412,9100100078047,110,1931,1295.8778987,50316.5473006,2002
515260.844086272,5087752.1069017,30866,9100100013036,84,1932,4140.57554793,213850.319972,2002
512524.656289729,5085764.07529972,30949,9100100060026,117,1912,1132.54937984,28426.3757178,2002
515307.329537398,5088237.65417146,30976,9100100013021,109,1966,2882.21836156,111121.50139,2002
512531.584395083,5090015.47819304,32713,9100100067080,30,1986,1250.77899764,36463.5983519,2002
515328.973957902,5087885.6255088,33199,9100100013028,133,1966,1242.54651743,37424.8164156,2002
510522.098536978,5094056.18417365,34608,9100100103055,0,0,2393.54053977,81010.5674874,2002
511569.422192389,5095889.17416206,34921,9100100103031,110,1947,4894.22885257,331508.654506,2002
515891.424693124,5095382.0552094,35310,9100100104013,30,1921,1504.11807394,26178.8241173,2002
512616.103107645,5088913.957401,35316,9100100067037,123,1969,1435.19090993,44462.958116,2002
511796.446880615,5102709.46726874,14016,9100100131005,80,0,2206.3860734,182493.611203,2004
511255.203060712,5110838.63362125,8669,9100100163019,65,1987,1912.80449907,86533.2392976,2000
512511.381062267,5111521.66317655,11753,9100100163012,80,0,872.175875294,40173.0520359,2000
511557.3214902,5110686.0353938,13174,9100100163013,30,1987,2033.96532937,68474.7338446,2000
511326.903293073,5111537.18010275,13545,9100100163015,172,1922,1737.23787371,136691.527614,2000
512151.586875091,5111166.72491751,22294,9100100163007,0,0,752.535850781,14972.3848361,2000
511419.217718064,5097081.99662755,895,9100100117059,138,1919,2020.39160091,31030.5049349,2003
511607.019215904,5099940.40794607,1496,9100100131068,110,1897,2984.33474098,250286.241844,2003
513835.966592397,5102629.6490393,2418,9100100132011,100,1932,4216.71463641,413205.953955,2003
515115.589487093,5108328.03770362,2699,9100100164001,130,1917,1066.54482523,43438.1453851,2003
514371.458402072,5108645.16893608,3641,9100100165031,186,1923,1439.7298214,107590.832415,2003
512814.565296121,5110815.75232034,4051,9100100165011,144,1918,2960.37235016,174539.028062,2003
512450.843707268,5103494.73161139,4477,9100100131001,184,1882,1903.88381185,130761.889715,2003
513186.961477352,5102516.0583441,4578,9100100131016,96,1890,1815.18191516,129990.797469,2003
513820.340882099,5103897.78753103,4909,9100100142042,90,0,1833.91911725,125264.942079,2003
515007.437591097,5104504.42941157,6898,9100100142036,154,1930,1447.02818068,99946.0784912,2003
512889.331538848,5102926.4335418,8792,9100100131009,80,0,1360.73306849,93765.2666581,2003
512566.172531336,5102383.4310705,8801,9100100131017,131,1935,5658.22737737,442385.388313,2003
512453.00786212,5100038.57779617,8915,9100100117017,126.6667,0,3124.6981474,117683.872421,2003
511409.132476149,5097245.98130152,9967,9100100117031,127,1906,2222.85627956,163625.483027,2003
512511.381062267,5111521.66317655,11753,9100100163012,80,0,872.175875294,40173.0520359,2003
511858.889838268,5100291.46639375,12348,9100100131067,84.2857,0,2965.1885237,195606.44196,2003
511485.077901737,5097531.46681026,12818,9100100117058,178,1905,1272.67801874,61845.3004615,2003
514099.716425095,5110932.09540689,13953,9100100165019,80,1896,1900.230926,70449.9450683,2003
511796.446880615,5102709.46726874,14016,9100100131005,80,0,2206.3860734,182493.611203,2003
514419.714289822,5110849.6234464,14514,9100100165020,133,1920,2483.79221817,218450.592152,2003
511573.492236894,5102719.95173588,15051,9100100130023,156.6667,1915,2804.09579892,49082.75879,2003
511020.419481142,5097258.52715478,15147,9100100117033,128,1918,2179.57473215,140629.311685,2003
511205.709760776,5097846.28700827,16808,9100100117026,168,1917,2092.85321223,108839.064668,2003
513002.872049396,5111185.43662632,17736,9100100166019,163,1918,743.291954674,23348.2159308,2003
512233.271378669,5101617.25569784,18288,9100100131063,150,1802,856.890658201,46738.1289269,2003
514204.702087643,5103887.05710397,19303,9100100142043,120,1870,2213.5866688,204002.172969,2003
511300.617332376,5095980.39307973,21726,9100100117062,110,1930,358.364213538,8021.52692085,2003
512206.816697451,5102767.92793949,23631,9100100131006,80,0,1993.17206479,139364.49839,2003
511801.013523255,5101244.80732197,24051,9100100131042,140,1886,1310.60598205,64204.7750473,2003
514262.046968885,5110330.52377828,24848,9100100165023,128,1912,1744.55594391,103302.09128,2003
512267.986801982,5103131.43301693,25320,9100100131003,80,0,3399.85111134,313446.954788,2003
513483.856616981,5110960.33710427,25609,9100100165014,136,1926,1901.26417021,136733.736692,2003
512193.762610301,5100628.98006426,26161,9100100117006,133,1939,1093.47605175,32664.5256661,2003
514357.336630512,5108350.20946615,26992,9100100164004,207,1911,1107.38101067,74327.3294484,2003
514693.005911221,5108631.28226617,27408,9100100165073,148,1900,1520.37621923,61099.1266408,2003
510897.07889777,5097891.83085272,29819,9100100117028,120,1968,1612.85961117,56187.9400212,2003
514882.292835728,5103708.9277708,30934,9100100142041,100,0,1914.46135885,71503.6745851,2003
511633.694638878,5099558.75986905,30982,9100100117019,110,1900,1851.37083187,140806.697923,2003
515050.165867964,5108930.39749635,31858,9100100165029,114,1932,2709.60252763,253339.697586,2003
512877.843570039,5103501.15074047,33537,9100100132022,60,1926,1551.62245585,100315.316747,2003
514792.892594632,5108335.10281845,34121,9100100164003,148,1911,1517.82376699,80972.0549891,2003
512154.262447231,5110018.7701629,34659,9100100162010,155,1903,5598.60500731,567074.72927,2003
511238.203345396,5096774.02516231,35727,9100100117037,127,1927,810.465414812,36484.480472,2003
511254.3485103,5100379.39897453,2506,9100100131071,146,1944,1446.46418352,35942.4860593,2001
512814.565296121,5110815.75232034,4051,9100100165011,144,1918,2960.37235016,174539.028062,2001
511528.523167299,5102264.414576,4608,9100100131037,125,1924,1521.07434433,51085.4848889,2001
513820.340882099,5103897.78753103,4909,9100100142042,90,0,1833.91911725,125264.942079,2001
514672.774500792,5103568.43857467,7900,9100100132018,100,0,1023.35799891,38161.7031063,2001
511322.504388959,5100005.83957528,9033,9100100131072,127,1940,1303.63518952,69064.09031,2001
511882.589515419,5108326.09910531,10380,9100100162003,140,1909,4096.23426238,481683.33426,2001
514707.888281681,5109801.93584307,11077,9100100165065,210,1900,1664.36616606,56360.6126761,2001
511858.889838268,5100291.46639375,12348,9100100131067,84.2857,0,2965.1885237,195606.44196,2001
511326.903293073,5111537.18010275,13545,9100100163015,172,1922,1737.23787371,136691.527614,2001
514099.716425095,5110932.09540689,13953,9100100165019,80,1896,1900.230926,70449.9450683,2001
511796.446880615,5102709.46726874,14016,9100100131005,80,0,2206.3860734,182493.611203,2001
514419.714289822,5110849.6234464,14514,9100100165020,133,1920,2483.79221817,218450.592152,2001
511573.492236894,5102719.95173588,15051,9100100130023,156.6667,1915,2804.09579892,49082.75879,2001
514204.702087643,5103887.05710397,19303,9100100142043,120,1870,2213.5866688,204002.172969,2001
514262.046968885,5110330.52377828,24848,9100100165023,128,1912,1744.55594391,103302.09128,2001
512193.762610301,5100628.98006426,26161,9100100117006,133,1939,1093.47605175,32664.5256661,2001
511315.519384225,5100819.05215904,29208,9100100131046,70,1986,1623.95436745,44811.6058014,2001
511633.694638878,5099558.75986905,30982,9100100117019,110,1900,1851.37083187,140806.697923,2001
514661.89440214,5104054.05582501,31330,9100100142039,102,1908,2885.71735014,239784.248066,2001
512479.362087427,5110312.46032753,32663,9100100162012,200,1961,4168.35677216,122838.098716,2001
511468.804474922,5101306.76167973,33390,9100100131045,80,1963,1968.31482601,49101.6286205,2001
524721.770483501,5090339.50318895,767,9100200093031,101,1939,4511.13584942,396457.323815,2016
521241.934635326,5079002.87055466,2614,9100100043001,108,1901,2670.50366122,190251.493132,2016
526522.454945091,5102696.72431074,1726923,,129,1937,0,0.0001099632,2015
530341.081739391,5121255.5239819,2117281,,143,1939,0,4.7961608664E-05,2015
510966.53111519,5112973.58464982,3828,9100300093021,80,0,4561.51931182,342429.524237,2003
511137.302268474,5112241.42040773,31265,9100300093015,89.0909,0,11854.9353034,1440174.76902,2003
511137.302268474,5112241.42040773,31265,9100300093015,89.0909,0,11854.9353034,1440174.76902,2001
511137.302268474,5112241.42040773,31265,9100300093015,89.0909,0,11854.9353034,1440174.76902,2000
510142.067138596,5094298.73262779,6639,9100100103051,137,1923,5749.82902233,424482.788883,2005
510438.903739921,5092749.28195272,17508,9100100090007,125,1934,1888.19600441,47135.5983182,2005
510767.036701924,5093340.74846703,33318,9100100090046,12.5,2011,3596.53160628,158204.47777,2005
510438.903739921,5092749.28195272,17508,9100100090007,125,1934,1888.19600441,47135.5983182,2003
510767.036701924,5093340.74846703,33318,9100100090046,12.5,2011,3596.53160628,158204.47777,2003
511834.049478342,5100891.39876644,18221,9100100131050,76.6667,0,3167.74562305,185134.182435,2004
511240.121058289,5111173.83289491,24150,9100100163010,85.7143,0,9724.0047267,1182124.57744,2000
512854.13594217,5109206.21992824,12912,9100100165043,129,1908,5607.57415741,627719.706128,2003
511834.049478342,5100891.39876644,18221,9100100131050,76.6667,0,3167.74562305,185134.182435,2003
512988.928391857,5109345.80071835,20838,9100100165041,129,1908,1351.78267149,16823.8167635,2003
511240.121058289,5111173.83289491,24150,9100100163010,85.7143,0,9724.0047267,1182124.57744,2003
511846.069765105,5102251.16609933,27107,9100100131033,128,1935,2499.24997297,142006.231626,2003
513832.870949876,5111455.06848107,28764,9100100166002,134,1918,8765.00421583,587034.628679,2003
514186.676561429,5102888.40348932,30785,9100100132012,10,1892,4951.76151956,425769.623831,2003
513368.932126816,5103416.92378232,35355,9100100132020,80,0,6374.47323367,723345.191325,2003
512854.13594217,5109206.21992824,12912,9100100165043,129,1908,5607.57415741,627719.706128,2001
512462.014633584,5109647.79954085,20064,9100100162013,100,1906,2631.01674362,105233.428929,2001
511240.121058289,5111173.83289491,24150,9100100163010,85.7143,0,9724.0047267,1182124.57744,2001
512211.604552918,5100272.60510917,28681,9100100117008,96.6667,0,2622.0537722,95984.9194744,2001
513832.870949876,5111455.06848107,28764,9100100166002,134,1918,8765.00421583,587034.628679,2001
505589.287024088,5105102.42680307,1766,9100100127060,0,0,930.721989588,29462.7738398,2005
506100.090484945,5105139.40078062,1769,9100100127003,0,0,1654.13913105,89240.747741,2005
506347.088374141,5104896.42665117,1770,9100100127076,0,0,2575.46038781,96121.5108987,2005
507483.84911998,5105061.47670559,1780,9100100127018,0,0,1101.44518904,44589.2761523,2005
505701.320386501,5105088.95705943,1782,9100100127062,0,0,663.397226653,18974.4695599,2005
509092.464917492,5104959.59400556,1785,9100100122006,0,0,1771.97473503,150136.195249,2005
509353.709637676,5104530.06575721,1787,9100100122007,0,0,3347.09224159,202135.852306,2005
505686.527860388,5104776.21363549,1791,9100100127075,0,0,2650.88152904,96976.3036663,2005
506923.603312812,5104841.34485256,1792,9100100127012,0,0,1576.63684634,51344.4303345,2005
509242.06887105,5104773.78424783,1796,9100100122029,0,0,1116.33870325,48398.7937564,2005
508380.152541892,5104269.75909295,1805,9100100122002,0,0,4453.20134041,268943.712193,2005
507776.962152034,5104774.85017997,1809,9100100127019,0,0,612.294928167,20128.0444554,2005
507611.407740608,5104757.69006686,1810,9100100127061,0,0,563.189848959,16744.8997289,2005
505649.906018335,5104744.6646955,1813,9100100127073,0,0,716.765658575,14385.5952332,2005
506925.633922178,5104702.30525446,1815,9100100127010,0,0,963.982828425,44326.0153809,2005
507519.507318083,5104491.18402922,1822,9100100127020,0,0,1868.28510128,54559.8970226,2005
505627.546392517,5104611.47036892,1823,9100100127001,0,0,430.893233189,11802.2382233,2005
507110.337120398,5104401.98144477,1825,9100100127070,0,0,1146.45921173,50808.677486,2005
506724.547042814,5104377.91308032,1826,9100100127008,0,0,3651.23330887,268745.359444,2005
509453.038009006,5104137.17880246,1839,9100100122020,0,0,2613.25225097,71590.0191949,2005
510258.254976073,5104238.70986657,1860,9100100129012,0,0,1783.06515786,86009.2332547,2005
509713.832884711,5103843.99379724,1862,9100100129003,0,0,4417.74081819,165445.658946,2005
511341.722114956,5104163.87954015,1874,9100100129073,0,0,2334.15120622,160567.49588,2005
509974.890905074,5104112.87095268,1881,9100100129006,0,0,1577.52543936,45743.367094,2005
508011.234748183,5103812.70149737,1887,9100100127028,0,0,2985.6331199,183361.150192,2005
508772.473856923,5103756.71063482,1905,9100100122027,0,0,2296.86441755,148956.253639,2005
507420.361732575,5103844.93872635,1906,9100100127022,0,0,2373.91937458,130855.711059,2005
509461.946485237,5103751.08130805,1929,9100100122010,0,0,1212.6812426,37127.9046502,2005
510039.878439627,5103279.05509703,1936,9100100129038,0,0,4128.17544854,251867.793228,2005
509287.169702687,5103333.82413365,1943,9100100122011,0,0,2120.04415083,160839.976538,2005
509615.787097962,5103513.89710032,1947,9100100129041,0,0,1280.94982384,51331.091604,2005
509777.426901017,5103097.40377646,1950,9100100129043,0,0,3450.54610644,181008.94231,2005
511158.001664789,5103515.78900146,1954,9100100129031,0,0,2487.69754623,80024.611912,2005
507349.868093389,5103100.38195205,1958,9100100127050,0,0,2969.8157231,112853.621753,2005
507776.804629189,5103291.14128031,1962,9100100127034,0,0,1686.91239728,81556.901576,2005
509516.315459941,5103425.01716284,1964,9100100122039,0,0,714.126922106,17159.6935994,2005
511291.601534498,5103365.45550993,1968,9100100129030,0,0,1147.45376741,45618.2452959,2005
507127.697560001,5103337.80555306,1970,9100100127048,0,0,1168.69790171,69248.1478252,2005
511026.865147246,5103339.62186499,1971,9100100129046,0,0,1263.36269053,50759.5253431,2005
509439.747916326,5103265.95362169,1974,9100100122041,0,0,1097.50673516,38467.6453023,2005
511219.405788268,5103062.1897646,1975,9100100129048,0,0,4073.02420139,154475.340308,2005
509477.98345601,5103361.27894256,1976,9100100122040,0,0,186.495768261,2098.11700926,2005
505817.727672859,5102683.87978232,1984,9100100127078,0,0,2507.42034876,117268.822619,2005
509552.601446418,5103000.65049935,1985,9100100129042,0,0,1412.61743079,43413.5586722,2005
507226.389190665,5103060.64854652,1986,9100100127049,0,0,1177.6052333,36151.2723987,2005
509486.064138367,5103157.13754596,1988,9100100122042,0,0,630.57586727,10265.0095605,2005
507863.539833371,5102843.51378082,1991,9100100128012,0,0,2553.45337219,136710.387399,2005
508222.977384221,5102573.62920376,1993,9100100128016,0,0,4229.25737195,261991.443114,2005
507907.699310687,5103034.720666,1995,9100100128011,0,0,852.998460605,24071.092023,2005
508401.203094204,5102874.8381679,1996,9100100128019,0,0,1468.02176627,83090.0256665,2005
509503.213235914,5103068.25655553,2000,9100100122043,0,0,564.156148289,14462.9562692,2005
509351.097436513,5102898.47667675,2004,9100100122012,0,0,1838.67421305,58908.6241405,2005
509132.299049654,5102901.35920882,2007,9100100122032,0,0,1238.51064286,74208.8073985,2005
511183.415720771,5102970.88551901,2008,9100100129076,0,0,597.343576463,11914.712018,2005
507552.973062123,5102653.83114887,2014,9100100128008,0,0,1514.25211903,97456.9593928,2005
510846.85763268,5102494.97026517,2015,9100100129018,0,0,3103.43184731,143591.642984,2005
509414.510169959,5102766.67275287,2017,9100100122014,0,0,912.966237432,25699.7607215,2005
507166.387072361,5102617.27600035,2023,9100100127053,0,0,987.242548511,51441.2804724,2005
509651.238951977,5102694.2244509,2031,9100100122045,0,0,768.015478438,23714.3325405,2005
509666.774976823,5102626.7617059,2033,9100100122046,0,0,2284.88952295,59821.8427419,2005
507208.784655648,5102231.02095715,2043,9100100128004,0,0,1982.49660951,51044.7067304,2005
508808.270858504,5102482.21847523,2044,9100100128021,0,0,920.117793417,39561.2914838,2005
509708.663441641,5102280.86980725,2047,9100100122016,0,0,1779.89788216,147425.819918,2005
507157.885252481,5102336.82422923,2051,9100100128003,0,0,1425.40466133,68843.7307535,2005
509953.017018714,5102217.08841882,2056,9100100129055,0,0,1364.30250448,61821.1058594,2005
508285.628265195,5102386.54678996,2057,9100100128092,0,0,399.124053853,6773.21609577,2005
508193.146449375,5102315.33414789,2068,9100100128085,0,0,490.211727139,8985.11350937,2005
509185.147266441,5102259.24538746,2072,9100100128074,0,0,698.448886461,28495.8456733,2005
507307.609913958,5101993.91322368,2074,9100100128005,0,0,2135.79893114,81568.641356,2005
510250.069508429,5102101.33880975,2077,9100100129051,0,0,1313.71720081,55464.3961567,2005
508933.409750767,5101394.22449551,2081,9100100128032,0,0,5727.05112507,379752.042531,2005
509619.148899449,5101695.33072277,2082,9100100122018,0,0,2650.94322031,112813.857492,2005
507344.969562443,5102114.67718279,2083,9100100128075,0,0,339.262965121,5108.61081148,2005
507208.964276197,5102022.77212281,2085,9100100128048,0,0,932.26115748,30508.681788,2005
510627.542121765,5101914.98073202,2087,9100100129068,0,0,1626.50006675,78555.0315779,2005
510024.381933374,5101795.78720245,2091,9100100129059,0,0,2047.04282317,82050.6769492,2005
506430.627222211,5101933.88447373,2106,9100100128082,0,0,847.093730873,41590.3264561,2005
509120.129756534,5101652.76474361,2118,9100100128073,0,0,2765.79435647,89715.2316444,2005
506412.458859844,5101644.96700139,2130,9100100128060,0,0,1507.45114804,82881.5591211,2005
509141.434144613,5101835.07342269,2132,9100100128026,0,0,229.565443231,2134.03454808,2005
509310.779971434,5101388.09430922,2135,9100100128028,0,0,3368.63367341,284009.217078,2005
508550.077305296,5101551.59631108,2138,9100100128034,0,0,2082.99723844,76998.7154441,2005
507304.725265237,5101450.23071256,2143,9100100128047,0,0,2377.22112709,168778.061303,2005
510030.520374344,5101500.28921141,2146,9100100129056,0,0,2077.82582791,94096.6746836,2005
505562.171756832,5101009.92984513,2171,9100100128070,0,0,2955.53637889,94171.6199906,2005
506413.459910127,5101351.68124638,2172,9100100128057,0,0,1232.34081233,63841.3156306,2005
509699.702421812,5101379.26836881,2174,9100100129057,0,0,737.290778658,17145.2720133,2005
509644.025522174,5101385.15192447,2184,9100100122047,0,0,414.719468079,6373.0278649,2005
507246.737366661,5101186.9119723,2189,9100100128080,0,0,1574.76130026,47926.1819769,2005
506442.519954197,5100964.86160341,2195,9100100128056,0,0,3061.0053859,246587.64875,2005
507133.737801814,5100894.53256221,2229,9100100128081,0,0,1184.80054162,37046.4162082,2005
508892.34807086,5100890.30379297,2238,9100100128033,0,0,737.260888035,23591.1987029,2005
507075.009084719,5100583.51851765,2249,9100100128052,0,0,1583.43805728,96230.92066,2005
507354.681064099,5100478.53914864,2276,9100100128051,0,0,990.877826881,41494.5084367,2005
505519.572275828,5100179.34799641,2297,9100100119016,0,0,2277.66522787,162299.57779,2005
505317.539932064,5100298.74257469,2298,9100100119097,0,0,745.438653317,19448.0104748,2005
505663.205624217,5100087.50774799,2302,9100100119015,0,0,2862.62995079,95359.6776004,2005
505894.16837808,5100262.70094275,2321,9100100119092,0,0,524.727310366,17670.7858729,2005
505126.738276819,5100131.64115873,2328,9100100119079,0,0,758.899775931,18734.6288447,2005
505163.870296385,5099631.21305704,2337,9100100119017,0,0,2871.71007414,160184.823011,2005
504892.047898285,5099811.71752505,2340,9100100119019,0,0,2087.32830415,57025.5414595,2005
505027.147367807,5099803.38661796,2341,9100100119018,0,0,1829.3996142,88979.0633585,2005
505493.899402464,5099478.38162916,2693,9100100119023,0,0,1855.07271504,106478.780611,2005
506934.500280964,5098652.63782805,2703,9100100119047,0,0,5050.93214975,319170.768337,2005
505371.616274085,5098872.03097614,2707,9100100119027,0,0,2751.93366522,158917.165214,2005
505625.717746796,5098534.65627897,2735,9100100119028,0,0,1601.95274361,96358.8279013,2005
506068.13039378,5098317.6021189,2739,9100100119031,0,0,1542.63661746,49640.3525613,2005
506779.335284223,5098299.39780341,2744,9100100119086,0,0,1032.60604002,47606.3848099,2005
506762.87132237,5097675.20514451,2780,9100100119045,0,0,1830.96261522,74077.6920153,2005
511594.792650476,5103933.69978318,5844,9100100129025,0,0,1340.52088843,50120.7431226,2005
511651.01654253,5104243.64759237,5863,9100100129024,0,0,649.146630703,11693.3231795,2005
511475.88252203,5103679.04014948,5892,9100100129028,0,0,2174.85959718,114456.377717,2005
511419.286166245,5103606.53392081,5902,9100100129011,0,0,656.985842772,16902.1147337,2005
505177.780623173,5104392.18504027,1842,9100100124012,0,0,2068.50711868,105251.941469,2005
506050.089869876,5104197.23145414,1845,9100100124016,0,0,3215.26771707,128621.178904,2005
505796.484659528,5103963.11571047,1848,9100100124071,0,0,3185.82394305,91589.5193909,2005
502684.589876747,5104225.72236219,1859,9100100147014,0,0,1264.43749725,60303.4596574,2005
505490.519340006,5104215.85161201,1864,9100100124014,0,0,1663.78884537,88984.9554045,2005
504979.958924824,5103920.51700094,1871,9100100124010,0,0,4242.2745446,210013.331571,2005
505241.137206392,5104149.19082551,1884,9100100124013,0,0,974.79988619,39724.2284059,2005
506071.30839429,5103978.17746204,1889,9100100124018,0,0,1436.27306226,58828.5162066,2005
505600.711952366,5103916.96272753,1898,9100100124025,0,0,1583.27671237,78807.9102426,2005
504534.871177572,5103741.5649719,1911,9100100124028,0,0,2589.83905827,165352.985663,2005
505768.133595906,5103250.16287335,1953,9100100124021,0,0,2887.19708727,130654.1957,2005
505243.172090924,5103146.56805934,1961,9100100124023,0,0,3025.92449132,204272.395921,2005
504427.99995321,5102880.27023908,1973,9100100124029,0,0,6517.73682248,455263.22006,2005
505248.980526742,5102877.06174115,2003,9100100124054,0,0,2253.41735283,103446.0229,2005
505540.175044157,5102345.32392494,2018,9100100124052,0,0,3579.82062715,192847.584755,2005
504731.912836009,5102505.26067394,2032,9100100124045,0,0,2339.30088518,90628.622258,2005
505302.421247223,5102580.33545684,2037,9100100124051,0,0,1203.74953462,56790.2616568,2005
504826.748465745,5102194.0627633,2058,9100100124046,0,0,2621.22088748,138799.347285,2005
505152.679235361,5102174.32320305,2066,9100100124049,0,0,1865.77245631,84116.0781716,2005
505513.107651264,5102249.12542509,2070,9100100124053,0,0,946.211589726,28418.136498,2005
504402.341283271,5101843.28114085,2095,9100100126010,0,0,1791.24986666,130092.684869,2005
504847.335116162,5101767.54671835,2099,9100100126011,0,0,3557.93418544,160042.012371,2005
505302.452376562,5101845.17207403,2107,9100100126015,0,0,1867.70537592,94298.2245895,2005
505324.854541422,5101573.18870883,2151,9100100126017,0,0,1030.81291657,21990.1758268,2005
503590.062891726,5101485.19189255,2152,9100100126022,0,0,1326.00792037,48552.5312838,2005
501582.316429731,5101397.61255011,2165,9100100125004,0,0,1240.53500778,44136.0782832,2005
501512.693801488,5101493.05296282,2166,9100100125020,0,0,494.745704204,8672.88726309,2005
503160.438294392,5101173.02374277,2167,9100100126047,0,0,2052.54827717,156448.785026,2005
502147.078560971,5101336.42439834,2176,9100100125022,0,0,939.351781759,35688.6843417,2005
504592.74190603,5101360.8584016,2179,9100100126042,0,0,865.171851771,45843.5431911,2005
505264.157538738,5101051.84202008,2194,9100100126046,0,0,2079.5857762,83401.4686209,2005
502550.391057917,5101181.46435115,2197,9100100125009,0,0,1371.51411277,56035.2036887,2005
502460.774055286,5101028.34364287,2223,9100100125012,0,0,709.347468406,27658.0218895,2005
504562.023819511,5100832.42045007,2240,9100100126049,0,0,1043.40986159,39396.1202658,2005
503530.037983198,5100522.62720084,2267,9100100126069,0,0,1022.42985358,48281.3484056,2005
501302.124221746,5100337.97917739,2288,9100100121012,0,0,1012.02623334,53655.7971294,2005
504937.957513382,5100200.14140026,2300,9100100120013,0,0,2421.26348387,88592.6664008,2005
504740.49628408,5100104.90678388,2301,9100100120012,0,0,1848.05427735,105856.375462,2005
503168.173918256,5099940.14394718,2335,9100100120005,0,0,1272.95530121,33147.021571,2005
502260.702553814,5099935.70962191,2346,9100100121055,0,0,1076.71586525,53067.702653,2005
502054.986437048,5099869.04570381,2349,9100100121016,0,0,1319.89506154,74919.2543287,2005
502391.107718868,5104146.78758366,2368,9100100147012,0,0,1155.44816351,38461.9204318,2005
505473.391522147,5104771.60726433,2403,9100100146002,0,0,702.454141929,24346.0231136,2005
505357.035908445,5105033.778511,2404,9100100146003,0,0,1844.83766739,84965.457022,2005
503864.669759974,5105126.5125672,2410,9100100146010,0,0,2408.88137503,99407.9398895,2005
502838.911886953,5104206.77071169,2422,9100100146017,0,0,932.925605598,26905.659132,2005
503211.719620698,5100815.29256838,2447,9100100126056,0,0,1604.85412754,68312.9128223,2005
501985.834857667,5099464.37474503,2449,9100100121022,0,0,1317.34636878,89226.3155714,2005
502621.610146962,5099093.79772897,2459,9100100121030,0,0,807.297788319,20881.5869617,2005
502077.344007935,5098931.31562558,2462,9100100121026,0,0,1340.78213413,85462.1444534,2005
502929.812260647,5098485.52990183,2467,9100100121034,0,0,2483.20443235,149375.909048,2005
502589.439591287,5098612.84112944,2471,9100100121036,0,0,1873.25138536,40776.8841359,2005
503773.65487471,5098302.35408779,2483,9100100100011,0,0,808.204682608,36019.9369237,2005
503749.621983783,5098114.3515282,2488,9100100100010,0,0,653.200640444,25218.4805137,2005
501158.583592924,5097662.12862873,2492,9100100099001,0,0,1885.41625467,132446.305052,2005
501999.194630332,5097936.32902021,2494,9100100121046,0,0,932.647072622,41350.2126352,2005
503969.288695876,5097852.09319524,2495,9100100100008,0,0,1194.64242559,34044.7254188,2005
503932.437708177,5097494.64357448,2497,9100100100020,0,0,2589.20167879,227159.309041,2005
503481.721037545,5097262.65038762,2502,9100100100016,0,0,4470.53016332,165131.42153,2005
502049.199043598,5097709.63304433,2503,9100100121048,0,0,1024.47720252,48557.9717067,2005
501903.042423909,5097560.44530945,2509,9100100121050,0,0,1488.89292298,36441.1835008,2005
501384.077809122,5097463.05002256,2510,9100100099003,0,0,1390.74567224,80230.632533,2005
503620.935106463,5097487.90100121,2512,9100100100056,0,0,1522.61343258,59913.0138657,2005
503442.37699424,5096760.61609638,2520,9100100100029,0,0,3105.45460215,107929.00208,2005
501849.129330929,5097043.869315,2523,9100100100038,0,0,1306.86110004,84791.0246311,2005
502146.152860254,5096945.7444048,2526,9100100100036,0,0,1645.94767795,118839.923249,2005
503165,5096606.39567728,2532,9100100100059,0,0,4271.43568545,225695.402524,2005
502209.217879699,5096723.31765113,2536,9100100100079,0,0,573.195295372,13912.325007,2005
503615.246070252,5096588.53041254,2538,9100100100028,0,0,961.720762244,51669.5636968,2005
502887.478725484,5096162.21569033,2544,9100100100061,0,0,3458.73099041,126843.561605,2005
501799.253929606,5096291.72838252,2565,9100100099009,0,0,449.825496927,8234.99888836,2005
501724.775704046,5096202.13978259,2569,9100100099056,0,0,645.913668574,23863.168343,2005
501870.170955271,5095839.8857009,2587,9100100099011,0,0,1403.36677413,89033.4033173,2005
502976.198230042,5095829.20795913,2588,9100100100044,0,0,1157.93938708,44226.8671597,2005
500791.488846116,5094861.66116379,2617,9100100099028,0,0,1555.72612235,56024.3204174,2005
500867.943116552,5094714.91707513,2622,9100100099050,0,0,1175.46663175,54115.9954251,2005
504103.360209261,5094540.7007481,2631,9100100101025,0,0,1127.94153218,50172.2173295,2005
504186.851023582,5094473.63473198,2639,9100100101026,0,0,472.629510598,12766.0547394,2005
504651.105243686,5098157.45976374,2745,9100100100005,0,0,1414.08165841,64104.3459315,2005
505105.943914822,5095032.30037959,2946,9100100101027,0,0,3440.61741613,158969.152577,2005
505635.292037105,5094732.23745148,2971,9100100101058,0,0,1874.32394828,86746.75916,2005
505278.904203084,5094288.32660549,3102,9100100101033,0,0,2176.43235383,151579.115993,2005
505095.177660883,5094262.81046748,3103,9100100101059,0,0,1440.66021432,59445.9280399,2005
506651.160168001,5091876.70558426,3130,9100100094015,0,0,3597.79358537,230985.190597,2005
505924.350562452,5091097.66368787,3211,9100100094004,0,0,822.43711412,30213.9146186,2005
509078.582876755,5110398.90956676,1548,9100100159016,0,0,3078.09777892,119408.93119,2005
508692.002125212,5110377.49145205,1553,9100100159031,0,0,2852.05519331,145590.690861,2005
508804.111712654,5110220.14152434,1556,9100100159049,0,0,1168.94508112,67596.708984,2005
509205.909175686,5110009.11564382,1570,9100100159018,0,0,2181.10380251,114355.898887,2005
509967.497276402,5110147.2554307,1573,9100100159051,0,0,736.861219835,26383.4361736,2005
507822.711592671,5109555.45842393,1582,9100100159003,0,0,4397.66704025,184956.72401,2005
508806.342555182,5109630.05003744,1601,9100100159008,0,0,883.289170714,25391.5237561,2005
508909.482717466,5109440.14386883,1605,9100100159009,0,0,2624.99757541,104870.089159,2005
507717.50221369,5109173.16869879,1615,9100100144009,0,0,2520.52530638,130541.460751,2005
510590.797121468,5108914.16793506,1630,9100100160034,0,0,1695.32149173,109513.533363,2005
508867.190353645,5108607.27170529,1640,9100100144002,0,0,2325.96710422,89614.2126387,2005
507372.392119441,5108919.90229176,1641,9100100144014,0,0,598.105937369,19248.1509939,2005
509258.592032734,5108460.41298442,1643,9100100160014,0,0,4059.326661,147794.919848,2005
509262.564983165,5108557.66773125,1654,9100100160013,0,0,1936.46164295,73497.4795534,2005
508144.294373641,5108588.69879466,1655,9100100144021,0,0,1340.11223434,57243.405324,2005
511232.624382371,5108412.20127913,1656,9100100160023,0,0,1788.51360512,66469.2292549,2005
509007.44144134,5108170.6705729,1666,9100100144025,0,0,1575.45236215,78531.3858057,2005
509319.453198221,5107919.63942406,1668,9100100160015,0,0,2948.95354882,227335.71148,2005
507776.023326547,5107881.23091268,1671,9100100144038,0,0,3259.78987668,216934.701175,2005
510613.957030215,5107313.58732316,1689,9100100160049,0,0,1612.64760761,63056.7076369,2005
508697.068320101,5106115.82863484,1708,9100100144050,0,0,2928.30698264,196585.799101,2005
508918.857186961,5106717.116908,1710,9100100143001,0,0,823.485327009,21089.2739519,2005
510606.986174702,5106212.41162742,1720,9100100143029,0,0,3168.45733828,145523.602751,2005
508888.347693788,5106234.8272414,1723,9100100143005,0,0,1838.66540671,97134.8949595,2005
508431.471021955,5106066.72946413,1727,9100100144051,0,0,3799.3188561,158709.384722,2005
508390.222136514,5106017.18964414,1735,9100100144055,0,0,1319.42539127,40083.9888414,2005
509746.363506585,5105560.14789205,1740,9100100143019,0,0,2071.30164845,177487.901739,2005
509336.493704367,5105752.63832447,1742,9100100143015,0,0,1637.42159639,65508.1776635,2005
510370.345030332,5105652.03703715,1744,9100100143030,0,0,3012.70260285,196310.429055,2005
510490.530031507,5105322.57428626,1749,9100100143032,0,0,2210.61843268,147127.17207,2005
508879.388154192,5105330.68176385,1756,9100100143011,0,0,978.052183307,54512.2295238,2005
509083.118316183,5105277.07149101,1760,9100100143013,0,0,680.356890791,18554.3942059,2005
508595.787328117,5105149.17377259,1761,9100100144060,0,0,1169.46254689,37366.2989665,2005
510650.703403515,5105001.81655359,1765,9100100143034,0,0,1813.13330691,77502.4566403,2005
508262.644346531,5105005.55548894,1776,9100100144058,0,0,1423.97862219,100340.068783,2005
511294.064057388,5104725.07641219,1800,9100100143039,0,0,1372.6178863,90409.6926097,2005
511108.020244591,5108627.47030117,2440,9100100160046,0,0,4570.10625215,199406.25893,2005
511590.849787703,5107387.74479182,6432,9100100160028,0,0,4263.97272844,417261.451212,2005
505177.780623173,5104392.18504027,1842,9100100124012,0,0,2068.50711868,105251.941469,2005
506050.089869876,5104197.23145414,1845,9100100124016,0,0,3215.26771707,128621.178904,2005
505796.484659528,5103963.11571047,1848,9100100124071,0,0,3185.82394305,91589.5193909,2005
502684.589876747,5104225.72236219,1859,9100100147014,0,0,1264.43749725,60303.4596574,2005
505490.519340006,5104215.85161201,1864,9100100124014,0,0,1663.78884537,88984.9554045,2005
504979.958924824,5103920.51700094,1871,9100100124010,0,0,4242.2745446,210013.331571,2005
505241.137206392,5104149.19082551,1884,9100100124013,0,0,974.79988619,39724.2284059,2005
506071.30839429,5103978.17746204,1889,9100100124018,0,0,1436.27306226,58828.5162066,2005
505600.711952366,5103916.96272753,1898,9100100124025,0,0,1583.27671237,78807.9102426,2005
504534.871177572,5103741.5649719,1911,9100100124028,0,0,2589.83905827,165352.985663,2005
505768.133595906,5103250.16287335,1953,9100100124021,0,0,2887.19708727,130654.1957,2005
505243.172090924,5103146.56805934,1961,9100100124023,0,0,3025.92449132,204272.395921,2005
504427.99995321,5102880.27023908,1973,9100100124029,0,0,6517.73682248,455263.22006,2005
505248.980526742,5102877.06174115,2003,9100100124054,0,0,2253.41735283,103446.0229,2005
505540.175044157,5102345.32392494,2018,9100100124052,0,0,3579.82062715,192847.584755,2005
504731.912836009,5102505.26067394,2032,9100100124045,0,0,2339.30088518,90628.622258,2005
505302.421247223,5102580.33545684,2037,9100100124051,0,0,1203.74953462,56790.2616568,2005
504826.748465745,5102194.0627633,2058,9100100124046,0,0,2621.22088748,138799.347285,2005
505152.679235361,5102174.32320305,2066,9100100124049,0,0,1865.77245631,84116.0781716,2005
505513.107651264,5102249.12542509,2070,9100100124053,0,0,946.211589726,28418.136498,2005
504402.341283271,5101843.28114085,2095,9100100126010,0,0,1791.24986666,130092.684869,2005
504847.335116162,5101767.54671835,2099,9100100126011,0,0,3557.93418544,160042.012371,2005
505302.452376562,5101845.17207403,2107,9100100126015,0,0,1867.70537592,94298.2245895,2005
505324.854541422,5101573.18870883,2151,9100100126017,0,0,1030.81291657,21990.1758268,2005
503590.062891726,5101485.19189255,2152,9100100126022,0,0,1326.00792037,48552.5312838,2005
501582.316429731,5101397.61255011,2165,9100100125004,0,0,1240.53500778,44136.0782832,2005
501512.693801488,5101493.05296282,2166,9100100125020,0,0,494.745704204,8672.88726309,2005
503160.438294392,5101173.02374277,2167,9100100126047,0,0,2052.54827717,156448.785026,2005
502147.078560971,5101336.42439834,2176,9100100125022,0,0,939.351781759,35688.6843417,2005
504592.74190603,5101360.8584016,2179,9100100126042,0,0,865.171851771,45843.5431911,2005
505264.157538738,5101051.84202008,2194,9100100126046,0,0,2079.5857762,83401.4686209,2005
502550.391057917,5101181.46435115,2197,9100100125009,0,0,1371.51411277,56035.2036887,2005
502460.774055286,5101028.34364287,2223,9100100125012,0,0,709.347468406,27658.0218895,2005
504562.023819511,5100832.42045007,2240,9100100126049,0,0,1043.40986159,39396.1202658,2005
503530.037983198,5100522.62720084,2267,9100100126069,0,0,1022.42985358,48281.3484056,2005
501302.124221746,5100337.97917739,2288,9100100121012,0,0,1012.02623334,53655.7971294,2005
504937.957513382,5100200.14140026,2300,9100100120013,0,0,2421.26348387,88592.6664008,2005
504740.49628408,5100104.90678388,2301,9100100120012,0,0,1848.05427735,105856.375462,2005
503168.173918256,5099940.14394718,2335,9100100120005,0,0,1272.95530121,33147.021571,2005
502260.702553814,5099935.70962191,2346,9100100121055,0,0,1076.71586525,53067.702653,2005
502054.986437048,5099869.04570381,2349,9100100121016,0,0,1319.89506154,74919.2543287,2005
502391.107718868,5104146.78758366,2368,9100100147012,0,0,1155.44816351,38461.9204318,2005
505473.391522147,5104771.60726433,2403,9100100146002,0,0,702.454141929,24346.0231136,2005
505357.035908445,5105033.778511,2404,9100100146003,0,0,1844.83766739,84965.457022,2005
503864.669759974,5105126.5125672,2410,9100100146010,0,0,2408.88137503,99407.9398895,2005
502838.911886953,5104206.77071169,2422,9100100146017,0,0,932.925605598,26905.659132,2005
503211.719620698,5100815.29256838,2447,9100100126056,0,0,1604.85412754,68312.9128223,2005
501985.834857667,5099464.37474503,2449,9100100121022,0,0,1317.34636878,89226.3155714,2005
502621.610146962,5099093.79772897,2459,9100100121030,0,0,807.297788319,20881.5869617,2005
502077.344007935,5098931.31562558,2462,9100100121026,0,0,1340.78213413,85462.1444534,2005
502929.812260647,5098485.52990183,2467,9100100121034,0,0,2483.20443235,149375.909048,2005
502589.439591287,5098612.84112944,2471,9100100121036,0,0,1873.25138536,40776.8841359,2005
501999.194630332,5097936.32902021,2494,9100100121046,0,0,932.647072622,41350.2126352,2005
502049.199043598,5097709.63304433,2503,9100100121048,0,0,1024.47720252,48557.9717067,2005
501903.042423909,5097560.44530945,2509,9100100121050,0,0,1488.89292298,36441.1835008,2005
